[{
  "id": 0,
  "name": "House Stark",
  "location": "The North",
  "flag": "Direwolf",
  "creed": "Winter is coming." 
  }, 
  {
  "id": 1,
  "name": "House Lannister",
  "location": "Casterly Rock",
  "flag": "Lion",
  "creed": "A Lannister always pays his debts." 
}] 